Plotting Vaccination Intention
…
count: false
 
### Basic Bar Graph
.panel1-my_bar-auto[

```r
*vaxxData
```
]
 
.panel2-my_bar-auto[

```
# A tibble: 475 x 15
   vaccination.int… flu.shot.history positive.test innoculation.lo…
   <fct>            <fct>            <fct>         <fct>           
 1 Yes              Yes              Yes           Chain Pharmacie…
 2 Yes              Yes              Yes           Chain Pharmacie…
 3 Yes              Yes              No            worksite        
 4 Don't Know/Not … No               Yes           Primary Care Do…
 5 Yes              Yes              Yes           Primary Care Do…
 6 Yes              Yes              Yes           Local Health De…
 7 Don't Know/Not … No               Yes           Primary Care Do…
 8 Yes              Yes              Yes           Primary Care Do…
 9 Don't Know/Not … Yes              Yes           Local Health De…
10 No               Yes              No            Local Health De…
# … with 465 more rows, and 11 more variables: preexisting.condition <fct>,
#   perceived.severity <fct>, education.level <fct>, perceived.benefit <fct>,
#   political.beliefs <fct>, perceived.barriers <fct>, wears.mask <fct>,
#   perceived.susceptibility <fct>, gender <fct>, age <dbl>, age.cat <fct>
```
…
count: false
 
### Fancier Bar Graph
.panel1-my_bar_colors-auto[

```r
*vaxxData
```
]
 
.panel2-my_bar_colors-auto[

```
# A tibble: 475 x 15
   vaccination.int… flu.shot.history positive.test innoculation.lo…
   <fct>            <fct>            <fct>         <fct>           
 1 Yes              Yes              Yes           Chain Pharmacie…
 2 Yes              Yes              Yes           Chain Pharmacie…
 3 Yes              Yes              No            worksite        
 4 Don't Know/Not … No               Yes           Primary Care Do…
 5 Yes              Yes              Yes           Primary Care Do…
 6 Yes              Yes              Yes           Local Health De…
 7 Don't Know/Not … No               Yes           Primary Care Do…
 8 Yes              Yes              Yes           Primary Care Do…
 9 Don't Know/Not … Yes              Yes           Local Health De…
10 No               Yes              No            Local Health De…
# … with 465 more rows, and 11 more variables: preexisting.condition <fct>,
#   perceived.severity <fct>, education.level <fct>, perceived.benefit <fct>,
#   political.beliefs <fct>, perceived.barriers <fct>, wears.mask <fct>,
#   perceived.susceptibility <fct>, gender <fct>, age <dbl>, age.cat <fct>
```
…
count: false
 
### Answer One
.panel1-answer_one-auto[

```r
*vaxxData
```
]
 
.panel2-answer_one-auto[

```
# A tibble: 475 x 15
   vaccination.int… flu.shot.history positive.test innoculation.lo…
   <fct>            <fct>            <fct>         <fct>           
 1 Yes              Yes              Yes           Chain Pharmacie…
 2 Yes              Yes              Yes           Chain Pharmacie…
 3 Yes              Yes              No            worksite        
 4 Don't Know/Not … No               Yes           Primary Care Do…
 5 Yes              Yes              Yes           Primary Care Do…
 6 Yes              Yes              Yes           Local Health De…
 7 Don't Know/Not … No               Yes           Primary Care Do…
 8 Yes              Yes              Yes           Primary Care Do…
 9 Don't Know/Not … Yes              Yes           Local Health De…
10 No               Yes              No            Local Health De…
# … with 465 more rows, and 11 more variables: preexisting.condition <fct>,
#   perceived.severity <fct>, education.level <fct>, perceived.benefit <fct>,
#   political.beliefs <fct>, perceived.barriers <fct>, wears.mask <fct>,
#   perceived.susceptibility <fct>, gender <fct>, age <dbl>, age.cat <fct>
```
…
count: false
 
### Basic Box Plot
.panel1-my_2var_boxplot-auto[

```r
*vaxxData
```
]
 
.panel2-my_2var_boxplot-auto[

```
# A tibble: 475 x 15
   vaccination.int… flu.shot.history positive.test innoculation.lo…
   <fct>            <fct>            <fct>         <fct>           
 1 Yes              Yes              Yes           Chain Pharmacie…
 2 Yes              Yes              Yes           Chain Pharmacie…
 3 Yes              Yes              No            worksite        
 4 Don't Know/Not … No               Yes           Primary Care Do…
 5 Yes              Yes              Yes           Primary Care Do…
 6 Yes              Yes              Yes           Local Health De…
 7 Don't Know/Not … No               Yes           Primary Care Do…
 8 Yes              Yes              Yes           Primary Care Do…
 9 Don't Know/Not … Yes              Yes           Local Health De…
10 No               Yes              No            Local Health De…
# … with 465 more rows, and 11 more variables: preexisting.condition <fct>,
#   perceived.severity <fct>, education.level <fct>, perceived.benefit <fct>,
#   political.beliefs <fct>, perceived.barriers <fct>, wears.mask <fct>,
#   perceived.susceptibility <fct>, gender <fct>, age <dbl>, age.cat <fct>
```
…
count: false
 
### Adding Layers to Box Plot
.panel1-adding_on-auto[

```r
*vaxxData
```
]
 
.panel2-adding_on-auto[

```
# A tibble: 475 x 15
   vaccination.int… flu.shot.history positive.test innoculation.lo…
   <fct>            <fct>            <fct>         <fct>           
 1 Yes              Yes              Yes           Chain Pharmacie…
 2 Yes              Yes              Yes           Chain Pharmacie…
 3 Yes              Yes              No            worksite        
 4 Don't Know/Not … No               Yes           Primary Care Do…
 5 Yes              Yes              Yes           Primary Care Do…
 6 Yes              Yes              Yes           Local Health De…
 7 Don't Know/Not … No               Yes           Primary Care Do…
 8 Yes              Yes              Yes           Primary Care Do…
 9 Don't Know/Not … Yes              Yes           Local Health De…
10 No               Yes              No            Local Health De…
# … with 465 more rows, and 11 more variables: preexisting.condition <fct>,
#   perceived.severity <fct>, education.level <fct>, perceived.benefit <fct>,
#   political.beliefs <fct>, perceived.barriers <fct>, wears.mask <fct>,
#   perceived.susceptibility <fct>, gender <fct>, age <dbl>, age.cat <fct>
```
…
---
count: false
 
### Pretty But Not Useful Bar Plot
.panel1-my_bar_not_useful-auto[

```r
*vaxxData
```
]
 
.panel2-my_bar_not_useful-auto[

```
# A tibble: 475 x 15
   vaccination.int… flu.shot.history positive.test innoculation.lo…
   <fct>            <fct>            <fct>         <fct>           
 1 Yes              Yes              Yes           Chain Pharmacie…
 2 Yes              Yes              Yes           Chain Pharmacie…
 3 Yes              Yes              No            worksite        
 4 Don't Know/Not … No               Yes           Primary Care Do…
 5 Yes              Yes              Yes           Primary Care Do…
 6 Yes              Yes              Yes           Local Health De…
 7 Don't Know/Not … No               Yes           Primary Care Do…
 8 Yes              Yes              Yes           Primary Care Do…
 9 Don't Know/Not … Yes              Yes           Local Health De…
10 No               Yes              No            Local Health De…
# … with 465 more rows, and 11 more variables: preexisting.condition <fct>,
#   perceived.severity <fct>, education.level <fct>, perceived.benefit <fct>,
#   political.beliefs <fct>, perceived.barriers <fct>, wears.mask <fct>,
#   perceived.susceptibility <fct>, gender <fct>, age <dbl>, age.cat <fct>
```
…
count: false
 
### Basic Grouped Bar Plot
.panel1-my_2var_bar-auto[

```r
*vaxxData
```
]
 
.panel2-my_2var_bar-auto[

```
# A tibble: 475 x 15
   vaccination.int… flu.shot.history positive.test innoculation.lo…
   <fct>            <fct>            <fct>         <fct>           
 1 Yes              Yes              Yes           Chain Pharmacie…
 2 Yes              Yes              Yes           Chain Pharmacie…
 3 Yes              Yes              No            worksite        
 4 Don't Know/Not … No               Yes           Primary Care Do…
 5 Yes              Yes              Yes           Primary Care Do…
 6 Yes              Yes              Yes           Local Health De…
 7 Don't Know/Not … No               Yes           Primary Care Do…
 8 Yes              Yes              Yes           Primary Care Do…
 9 Don't Know/Not … Yes              Yes           Local Health De…
10 No               Yes              No            Local Health De…
# … with 465 more rows, and 11 more variables: preexisting.condition <fct>,
#   perceived.severity <fct>, education.level <fct>, perceived.benefit <fct>,
#   political.beliefs <fct>, perceived.barriers <fct>, wears.mask <fct>,
#   perceived.susceptibility <fct>, gender <fct>, age <dbl>, age.cat <fct>
```
…
### Basic Grouped Bar Plot
.panel1-my_2var_bar-auto[

```r
vaxxData %>%
* group_by(flu.shot.history, vaccination.intention)
```
]
 
.panel2-my_2var_bar-auto[

```
# A tibble: 475 x 15
# Groups:   flu.shot.history, vaccination.intention [6]
   vaccination.int… flu.shot.history positive.test innoculation.lo…
   <fct>            <fct>            <fct>         <fct>           
 1 Yes              Yes              Yes           Chain Pharmacie…
 2 Yes              Yes              Yes           Chain Pharmacie…
 3 Yes              Yes              No            worksite        
 4 Don't Know/Not … No               Yes           Primary Care Do…
 5 Yes              Yes              Yes           Primary Care Do…
 6 Yes              Yes              Yes           Local Health De…
 7 Don't Know/Not … No               Yes           Primary Care Do…
 8 Yes              Yes              Yes           Primary Care Do…
 9 Don't Know/Not … Yes              Yes           Local Health De…
10 No               Yes              No            Local Health De…
# … with 465 more rows, and 11 more variables: preexisting.condition <fct>,
#   perceived.severity <fct>, education.level <fct>, perceived.benefit <fct>,
#   political.beliefs <fct>, perceived.barriers <fct>, wears.mask <fct>,
#   perceived.susceptibility <fct>, gender <fct>, age <dbl>, age.cat <fct>
```
…
count: false
 
### Answer 2
.panel1-answer_two-auto[

```r
*vaxxData
```
]
 
.panel2-answer_two-auto[

```
# A tibble: 475 x 15
   vaccination.int… flu.shot.history positive.test innoculation.lo…
   <fct>            <fct>            <fct>         <fct>           
 1 Yes              Yes              Yes           Chain Pharmacie…
 2 Yes              Yes              Yes           Chain Pharmacie…
 3 Yes              Yes              No            worksite        
 4 Don't Know/Not … No               Yes           Primary Care Do…
 5 Yes              Yes              Yes           Primary Care Do…
 6 Yes              Yes              Yes           Local Health De…
 7 Don't Know/Not … No               Yes           Primary Care Do…
 8 Yes              Yes              Yes           Primary Care Do…
 9 Don't Know/Not … Yes              Yes           Local Health De…
10 No               Yes              No            Local Health De…
# … with 465 more rows, and 11 more variables: preexisting.condition <fct>,
#   perceived.severity <fct>, education.level <fct>, perceived.benefit <fct>,
#   political.beliefs <fct>, perceived.barriers <fct>, wears.mask <fct>,
#   perceived.susceptibility <fct>, gender <fct>, age <dbl>, age.cat <fct>
```
…
### Answer 2
.panel1-answer_two-auto[

```r
vaxxData %>%
* group_by(political.beliefs, vaccination.intention)
```
]
 
.panel2-answer_two-auto[

```
# A tibble: 475 x 15
# Groups:   political.beliefs, vaccination.intention [18]
   vaccination.int… flu.shot.history positive.test innoculation.lo…
   <fct>            <fct>            <fct>         <fct>           
 1 Yes              Yes              Yes           Chain Pharmacie…
 2 Yes              Yes              Yes           Chain Pharmacie…
 3 Yes              Yes              No            worksite        
 4 Don't Know/Not … No               Yes           Primary Care Do…
 5 Yes              Yes              Yes           Primary Care Do…
 6 Yes              Yes              Yes           Local Health De…
 7 Don't Know/Not … No               Yes           Primary Care Do…
 8 Yes              Yes              Yes           Primary Care Do…
 9 Don't Know/Not … Yes              Yes           Local Health De…
10 No               Yes              No            Local Health De…
# … with 465 more rows, and 11 more variables: preexisting.condition <fct>,
#   perceived.severity <fct>, education.level <fct>, perceived.benefit <fct>,
#   political.beliefs <fct>, perceived.barriers <fct>, wears.mask <fct>,
#   perceived.susceptibility <fct>, gender <fct>, age <dbl>, age.cat <fct>
```
…
count: false
 
### Answer 2 Clarify
.panel1-answer_two_order-auto[

```r
*vaxxData
```
]
 
.panel2-answer_two_order-auto[

```
# A tibble: 475 x 15
   vaccination.int… flu.shot.history positive.test innoculation.lo…
   <fct>            <fct>            <fct>         <fct>           
 1 Yes              Yes              Yes           Chain Pharmacie…
 2 Yes              Yes              Yes           Chain Pharmacie…
 3 Yes              Yes              No            worksite        
 4 Don't Know/Not … No               Yes           Primary Care Do…
 5 Yes              Yes              Yes           Primary Care Do…
 6 Yes              Yes              Yes           Local Health De…
 7 Don't Know/Not … No               Yes           Primary Care Do…
 8 Yes              Yes              Yes           Primary Care Do…
 9 Don't Know/Not … Yes              Yes           Local Health De…
10 No               Yes              No            Local Health De…
# … with 465 more rows, and 11 more variables: preexisting.condition <fct>,
#   perceived.severity <fct>, education.level <fct>, perceived.benefit <fct>,
#   political.beliefs <fct>, perceived.barriers <fct>, wears.mask <fct>,
#   perceived.susceptibility <fct>, gender <fct>, age <dbl>, age.cat <fct>
```
…
### Answer 2 Clarify
.panel1-answer_two_order-auto[

```r
vaxxData %>%
* group_by(political.beliefs, vaccination.intention)
```
]
 
.panel2-answer_two_order-auto[

```
# A tibble: 475 x 15
# Groups:   political.beliefs, vaccination.intention [18]
   vaccination.int… flu.shot.history positive.test innoculation.lo…
   <fct>            <fct>            <fct>         <fct>           
 1 Yes              Yes              Yes           Chain Pharmacie…
 2 Yes              Yes              Yes           Chain Pharmacie…
 3 Yes              Yes              No            worksite        
 4 Don't Know/Not … No               Yes           Primary Care Do…
 5 Yes              Yes              Yes           Primary Care Do…
 6 Yes              Yes              Yes           Local Health De…
 7 Don't Know/Not … No               Yes           Primary Care Do…
 8 Yes              Yes              Yes           Primary Care Do…
 9 Don't Know/Not … Yes              Yes           Local Health De…
10 No               Yes              No            Local Health De…
# … with 465 more rows, and 11 more variables: preexisting.condition <fct>,
#   perceived.severity <fct>, education.level <fct>, perceived.benefit <fct>,
#   political.beliefs <fct>, perceived.barriers <fct>, wears.mask <fct>,
#   perceived.susceptibility <fct>, gender <fct>, age <dbl>, age.cat <fct>
```
…
count: false
 
### Basic Histogram
.panel1-my_1var_histo-auto[

```r
*vaxxData
```
]
 
.panel2-my_1var_histo-auto[

```
# A tibble: 475 x 15
   vaccination.int… flu.shot.history positive.test innoculation.lo…
   <fct>            <fct>            <fct>         <fct>           
 1 Yes              Yes              Yes           Chain Pharmacie…
 2 Yes              Yes              Yes           Chain Pharmacie…
 3 Yes              Yes              No            worksite        
 4 Don't Know/Not … No               Yes           Primary Care Do…
 5 Yes              Yes              Yes           Primary Care Do…
 6 Yes              Yes              Yes           Local Health De…
 7 Don't Know/Not … No               Yes           Primary Care Do…
 8 Yes              Yes              Yes           Primary Care Do…
 9 Don't Know/Not … Yes              Yes           Local Health De…
10 No               Yes              No            Local Health De…
# … with 465 more rows, and 11 more variables: preexisting.condition <fct>,
#   perceived.severity <fct>, education.level <fct>, perceived.benefit <fct>,
#   political.beliefs <fct>, perceived.barriers <fct>, wears.mask <fct>,
#   perceived.susceptibility <fct>, gender <fct>, age <dbl>, age.cat <fct>
```
…
count: false
 
### Fancy Histogram
.panel1-my_1var_histo_fancy-auto[

```r
*vaxxData
```
]
 
.panel2-my_1var_histo_fancy-auto[

```
# A tibble: 475 x 15
   vaccination.int… flu.shot.history positive.test innoculation.lo…
   <fct>            <fct>            <fct>         <fct>           
 1 Yes              Yes              Yes           Chain Pharmacie…
 2 Yes              Yes              Yes           Chain Pharmacie…
 3 Yes              Yes              No            worksite        
 4 Don't Know/Not … No               Yes           Primary Care Do…
 5 Yes              Yes              Yes           Primary Care Do…
 6 Yes              Yes              Yes           Local Health De…
 7 Don't Know/Not … No               Yes           Primary Care Do…
 8 Yes              Yes              Yes           Primary Care Do…
 9 Don't Know/Not … Yes              Yes           Local Health De…
10 No               Yes              No            Local Health De…
# … with 465 more rows, and 11 more variables: preexisting.condition <fct>,
#   perceived.severity <fct>, education.level <fct>, perceived.benefit <fct>,
#   political.beliefs <fct>, perceived.barriers <fct>, wears.mask <fct>,
#   perceived.susceptibility <fct>, gender <fct>, age <dbl>, age.cat <fct>
```
…
count: false
 
### Basic Violin Plot
.panel1-figure_3-auto[

```r
*vaxxData
```
]
 
.panel2-figure_3-auto[

```
# A tibble: 475 x 15
   vaccination.int… flu.shot.history positive.test innoculation.lo…
   <fct>            <fct>            <fct>         <fct>           
 1 Yes              Yes              Yes           Chain Pharmacie…
 2 Yes              Yes              Yes           Chain Pharmacie…
 3 Yes              Yes              No            worksite        
 4 Don't Know/Not … No               Yes           Primary Care Do…
 5 Yes              Yes              Yes           Primary Care Do…
 6 Yes              Yes              Yes           Local Health De…
 7 Don't Know/Not … No               Yes           Primary Care Do…
 8 Yes              Yes              Yes           Primary Care Do…
 9 Don't Know/Not … Yes              Yes           Local Health De…
10 No               Yes              No            Local Health De…
# … with 465 more rows, and 11 more variables: preexisting.condition <fct>,
#   perceived.severity <fct>, education.level <fct>, perceived.benefit <fct>,
#   political.beliefs <fct>, perceived.barriers <fct>, wears.mask <fct>,
#   perceived.susceptibility <fct>, gender <fct>, age <dbl>, age.cat <fct>
```
…
